<?xml version="1.0" encoding="UTF-8"?>
<svg width="50px" height="50px" viewBox="0 0 50 50" version="1.1" xmlns="http://www.w3.org/2000/svg" xmlns:xlink="http://www.w3.org/1999/xlink">
    <!-- Generator: Sketch 41.2 (35397) - http://www.bohemiancoding.com/sketch -->
    <title>dtmf_4_default</title>
    <desc>Created with Sketch.</desc>
    <defs></defs>
    <g id="Page-1" stroke="none" stroke-width="1" fill="none" fill-rule="evenodd">
        <g id="dtmf_4_default">
            <ellipse id="Oval-356-Copy-11" fill="#E67C39" cx="25" cy="25" rx="25" ry="25"></ellipse>
            <path d="M26.52,19.34 L26.52,26.63 L21,26.63 L26.43,19.34 L26.52,19.34 Z M26.52,30.14 L26.52,35 L30.57,35 L30.57,30.14 L33.36,30.14 L33.36,26.63 L30.57,26.63 L30.57,14 L26.76,14 L17.64,26.24 L17.64,30.14 L26.52,30.14 Z" id="4" fill="#FFFFFF"></path>
        </g>
    </g>
</svg>