<?xml version="1.0" encoding="UTF-8"?>
<svg width="50px" height="50px" viewBox="0 0 50 50" version="1.1" xmlns="http://www.w3.org/2000/svg" xmlns:xlink="http://www.w3.org/1999/xlink">
    <!-- Generator: Sketch 41.2 (35397) - http://www.bohemiancoding.com/sketch -->
    <title>dtmf_8_over</title>
    <desc>Created with Sketch.</desc>
    <defs></defs>
    <g id="Page-1" stroke="none" stroke-width="1" fill="none" fill-rule="evenodd">
        <g id="dtmf_8_over">
            <ellipse id="Oval-356-Copy-11" fill="#E67C39" cx="25" cy="25" rx="25" ry="25"></ellipse>
            <path d="M22.32,19.7 C22.32,19.2199976 22.4049992,18.8000018 22.575,18.44 C22.7450009,18.0799982 22.9799985,17.7800012 23.28,17.54 C23.5800015,17.2999988 23.924998,17.1150006 24.315,16.985 C24.7050019,16.8549993 25.1099979,16.79 25.53,16.79 C26.1900033,16.79 26.7249979,16.889999 27.135,17.09 C27.5450021,17.290001 27.8649988,17.5399985 28.095,17.84 C28.3250011,18.1400015 28.4799996,18.4549983 28.56,18.785 C28.6400004,19.1150016 28.68,19.4199986 28.68,19.7 C28.68,20.6000045 28.380003,21.2849977 27.78,21.755 C27.179997,22.2250024 26.4300045,22.46 25.53,22.46 C24.6699957,22.46 23.9200032,22.2250024 23.28,21.755 C22.6399968,21.2849977 22.32,20.6000045 22.32,19.7 Z M18.45,19.31 C18.45,20.3500052 18.7099974,21.2599961 19.23,22.04 C19.7500026,22.8200039 20.5199949,23.3499986 21.54,23.63 L21.54,23.69 C20.2799937,23.9900015 19.3050035,24.5899955 18.615,25.49 C17.9249965,26.3900045 17.58,27.5099933 17.58,28.85 C17.58,29.9900057 17.8049977,30.9699959 18.255,31.79 C18.7050022,32.6100041 19.3049963,33.2899973 20.055,33.83 C20.8050038,34.3700027 21.6549952,34.7649988 22.605,35.015 C23.5550048,35.2650012 24.5399949,35.39 25.56,35.39 C26.5400049,35.39 27.4999953,35.2550014 28.44,34.985 C29.3800047,34.7149986 30.2199963,34.3100027 30.96,33.77 C31.7000037,33.2299973 32.2949978,32.5500041 32.745,31.73 C33.1950023,30.9099959 33.42,29.9400056 33.42,28.82 C33.42,27.4999934 33.0800034,26.3850045 32.4,25.475 C31.7199966,24.5649954 30.7500063,23.9700014 29.49,23.69 L29.49,23.63 C30.5100051,23.2899983 31.2749975,22.7300039 31.785,21.95 C32.2950025,21.1699961 32.55,20.2600052 32.55,19.22 C32.55,18.6999974 32.4300012,18.1150033 32.19,17.465 C31.9499988,16.8149968 31.5550027,16.2050029 31.005,15.635 C30.4549972,15.0649971 29.7300045,14.580002 28.83,14.18 C27.9299955,13.779998 26.8300065,13.58 25.53,13.58 C24.6699957,13.58 23.8200042,13.6999988 22.98,13.94 C22.1399958,14.1800012 21.3850033,14.5399976 20.715,15.02 C20.0449967,15.5000024 19.5000021,16.0999964 19.08,16.82 C18.6599979,17.5400036 18.45,18.3699953 18.45,19.31 Z M21.84,28.64 C21.84,27.5599946 22.1999964,26.7350029 22.92,26.165 C23.6400036,25.5949971 24.5199948,25.31 25.56,25.31 C26.0600025,25.31 26.5249978,25.3899992 26.955,25.55 C27.3850021,25.7100008 27.7649983,25.9399985 28.095,26.24 C28.4250016,26.5400015 28.6849991,26.8949979 28.875,27.305 C29.065001,27.715002 29.16,28.1699975 29.16,28.67 C29.16,29.1900026 29.0700009,29.6699978 28.89,30.11 C28.7099991,30.5500022 28.4550016,30.9249985 28.125,31.235 C27.7949984,31.5450015 27.4150021,31.7849992 26.985,31.955 C26.5549978,32.1250008 26.0800026,32.21 25.56,32.21 C25.0599975,32.21 24.5800023,32.1250008 24.12,31.955 C23.6599977,31.7849992 23.2650017,31.5450015 22.935,31.235 C22.6049983,30.9249985 22.340001,30.5500022 22.14,30.11 C21.939999,29.6699978 21.84,29.1800027 21.84,28.64 Z" id="8" fill="#FFFFFF"></path>
        </g>
    </g>
</svg>