<?xml version="1.0" encoding="UTF-8"?>
<svg width="50px" height="50px" viewBox="0 0 50 50" version="1.1" xmlns="http://www.w3.org/2000/svg" xmlns:xlink="http://www.w3.org/1999/xlink">
    <!-- Generator: Sketch 41.2 (35397) - http://www.bohemiancoding.com/sketch -->
    <title>dtmf_2_over</title>
    <desc>Created with Sketch.</desc>
    <defs></defs>
    <g id="Page-1" stroke="none" stroke-width="1" fill="none" fill-rule="evenodd">
        <g id="dtmf_2_over">
            <ellipse id="Oval-356-Copy-11" fill="#E67C39" cx="25" cy="25" rx="25" ry="25"></ellipse>
            <path d="M18.27,22.07 L22.35,22.07 C22.35,21.5099972 22.4049994,20.9450029 22.515,20.375 C22.6250005,19.8049972 22.8099987,19.2850024 23.07,18.815 C23.3300013,18.3449976 23.6749979,17.9650014 24.105,17.675 C24.5350022,17.3849986 25.0599969,17.24 25.68,17.24 C26.6000046,17.24 27.3549971,17.5249972 27.945,18.095 C28.5350029,18.6650029 28.83,19.4599949 28.83,20.48 C28.83,21.1200032 28.6850015,21.6899975 28.395,22.19 C28.1049985,22.6900025 27.7450021,23.139998 27.315,23.54 C26.8849978,23.940002 26.4100026,24.3049983 25.89,24.635 C25.3699974,24.9650017 24.8800023,25.2899984 24.42,25.61 C23.5199955,26.2300031 22.6650041,26.839997 21.855,27.44 C21.044996,28.040003 20.340003,28.6949964 19.74,29.405 C19.139997,30.1150036 18.6650018,30.9199955 18.315,31.82 C17.9649983,32.7200045 17.79,33.7799939 17.79,35 L33.21,35 L33.21,31.34 L23.28,31.34 C23.8000026,30.6199964 24.3999966,29.9900027 25.08,29.45 C25.7600034,28.9099973 26.4599964,28.4050024 27.18,27.935 C27.9000036,27.4649977 28.6149964,26.9900024 29.325,26.51 C30.0350035,26.0299976 30.6699972,25.4950029 31.23,24.905 C31.7900028,24.3149971 32.2399983,23.6400038 32.58,22.88 C32.9200017,22.1199962 33.09,21.2100053 33.09,20.15 C33.09,19.1299949 32.895002,18.2100041 32.505,17.39 C32.114998,16.5699959 31.5900033,15.8800028 30.93,15.32 C30.2699967,14.7599972 29.5050044,14.3300015 28.635,14.03 C27.7649956,13.7299985 26.8500048,13.58 25.89,13.58 C24.6299937,13.58 23.5150049,13.7949979 22.545,14.225 C21.5749951,14.6550022 20.7700032,15.2549962 20.13,16.025 C19.4899968,16.7950039 19.0100016,17.6949949 18.69,18.725 C18.3699984,19.7550052 18.2299998,20.869994 18.27,22.07 Z" id="2" fill="#FFFFFF"></path>
        </g>
    </g>
</svg>