<?xml version="1.0" encoding="UTF-8" standalone="no"?>
<svg width="30px" height="20px" viewBox="0 0 30 20" version="1.1" xmlns="http://www.w3.org/2000/svg" xmlns:xlink="http://www.w3.org/1999/xlink">
    <!-- Generator: Sketch 39.1 (31720) - http://www.bohemiancoding.com/sketch -->
    <title>call_hangup</title>
    <desc>Created with Sketch.</desc>
    <defs></defs>
    <g id="Page-1" stroke="none" stroke-width="1" fill="none" fill-rule="evenodd">
        <g id="ICONS" transform="translate(-1126.000000, -579.000000)"></g>
        <g id="call_hangup" fill="#FFFFFF">
            <path d="M3.87294035,-1.18990562 C4.51195871,-2.34242087 5.11673487,-3.038484 5.68728697,-3.27811588 C5.97256303,-3.40363734 6.36338536,-3.52345149 6.85976569,-3.63756191 C7.35614602,-3.75167233 7.75837922,-3.80872669 8.06647735,-3.80872669 C8.22623194,-3.80872669 8.34604609,-3.79161038 8.42592338,-3.75737725 C8.63132214,-3.688911 8.93371022,-3.25529791 9.33309669,-2.45652496 C9.45861815,-2.23971516 9.62978122,-1.93162164 9.84659102,-1.53223517 C10.0634008,-1.1328487 10.2630911,-0.770553547 10.4456677,-0.445338848 C10.6282444,-0.120124148 10.8051129,0.185116649 10.9762785,0.470392701 C11.0105117,0.516036869 11.1103568,0.658672756 11.2758169,0.898304639 C11.441277,1.13793652 11.5639439,1.34047948 11.6438212,1.50593959 C11.7236985,1.6713997 11.7636365,1.83400461 11.7636365,1.9937592 C11.7636365,2.22198004 11.6010316,2.50725182 11.2758169,2.84958308 C10.9506022,3.19191434 10.5968652,3.50571329 10.2145953,3.79098934 C9.83232537,4.0762654 9.47858838,4.37865348 9.15337368,4.69816265 C8.82815898,5.01767183 8.66555407,5.28012186 8.66555407,5.48552062 C8.66555407,5.58822 8.69408124,5.7165923 8.75113645,5.87064137 C8.80819167,6.02469043 8.85668787,6.14165186 8.89662651,6.22152916 C8.93656516,6.30140645 9.01644126,6.4383369 9.1362572,6.63232462 C9.25607314,6.82631233 9.32168565,6.93471561 9.33309669,6.95753769 C10.2003359,8.52085046 11.1930817,9.86162779 12.3113638,10.9799099 C13.4296459,12.098192 14.7704232,13.0909378 16.333736,13.958177 C16.3565581,13.969588 16.4649614,14.0352006 16.6589491,14.1550165 C16.8529368,14.2748324 16.9898672,14.3547085 17.0697445,14.3946472 C17.1496218,14.4345858 17.2665833,14.483082 17.4206323,14.5401372 C17.5746814,14.5971925 17.7030537,14.6257196 17.8057531,14.6257196 C18.0111518,14.6257196 18.2736019,14.4631147 18.593111,14.1379 C18.9126202,13.8126853 19.2150083,13.4589483 19.5002844,13.0766784 C19.7855604,12.6944085 20.0993594,12.3406715 20.4416906,12.0154568 C20.7840219,11.6902421 21.0692937,11.5276372 21.2975145,11.5276372 C21.4572691,11.5276372 21.619874,11.5675752 21.7853341,11.6474525 C21.9507942,11.7273298 22.1533372,11.8499967 22.3929691,12.0154568 C22.6326009,12.1809169 22.7752368,12.280762 22.820881,12.3149952 C23.106157,12.4861608 23.4113978,12.6630293 23.7366125,12.845606 C24.0618272,13.0281826 24.4241224,13.2278729 24.8235089,13.4446827 C25.2228953,13.6614925 25.5309889,13.8326555 25.7477987,13.958177 C26.5465716,14.3575635 26.9801847,14.6599516 27.0486509,14.8653503 C27.0828841,14.9452276 27.1000004,15.0650418 27.1000004,15.2247963 C27.1000004,15.5328945 27.042946,15.9351277 26.9288356,16.431508 C26.8147252,16.9278883 26.694911,17.3187107 26.5693896,17.6039867 C26.3297577,18.1745388 25.6336946,18.779315 24.4811793,19.4183333 C23.4085414,20.0002965 22.3473304,20.2912737 21.2975145,20.2912737 C20.9894164,20.2912737 20.689881,20.2713047 20.3988994,20.231366 C20.1079178,20.1914274 19.7798553,20.1201094 19.414702,20.0174101 C19.0495486,19.9147107 18.7785404,19.8319819 18.6016693,19.7692211 C18.4247981,19.7064604 18.1081465,19.589499 17.6517048,19.4183333 C17.1952631,19.2471677 16.9156968,19.1444699 16.8129974,19.1102367 C15.6947153,18.7108503 14.696264,18.2372991 13.8176138,17.6895691 C12.3570004,16.7880968 10.8479127,15.5585754 9.2903055,14.0009682 C7.73269825,12.443361 6.50317691,10.9342733 5.60170459,9.47365989 C5.05397457,8.59500965 4.58042342,7.59655844 4.18103695,6.47827632 C4.14680382,6.37557694 4.04410599,6.0960106 3.87294035,5.63956892 C3.70177472,5.18312724 3.5848133,4.86647557 3.52205257,4.68960442 C3.45929183,4.51273326 3.37656302,4.24172508 3.27386364,3.87657173 C3.17116426,3.51141839 3.09984632,3.18335585 3.05990767,2.89237427 C3.01996902,2.6013927 3,2.30185734 3,1.9937592 C3,0.94394333 3.29097721,-0.117267665 3.87294035,-1.18990562 Z" id="" transform="translate(15.050000, 8.241274) rotate(-225.000000) translate(-15.050000, -8.241274) "></path>
            <path d="M10.8474576,18.1533668 C10.8474576,17.9468563 10.9193624,17.7713249 11.0631741,17.6267675 L13.3281972,15.3499999 L11.0631741,13.0732323 C10.9193624,12.9286749 10.8474576,12.7531435 10.8474576,12.546633 C10.8474576,12.3401224 10.9193624,12.164591 11.0631741,12.0200336 L12.1109399,10.966835 C12.2547516,10.8222776 12.4293775,10.75 12.6348228,10.75 C12.8402681,10.75 13.014894,10.8222776 13.1587057,10.966835 L15.4237288,13.2436026 L17.6887519,10.966835 C17.8325636,10.8222776 18.0071895,10.75 18.2126348,10.75 C18.4180801,10.75 18.592706,10.8222776 18.7365177,10.966835 L19.7842835,12.0200336 C19.9280952,12.164591 20,12.3401224 20,12.546633 C20,12.7531435 19.9280952,12.9286749 19.7842835,13.0732323 L17.5192604,15.3499999 L19.7842835,17.6267675 C19.9280952,17.7713249 20,17.9468563 20,18.1533668 C20,18.3598774 19.9280952,18.5354088 19.7842835,18.6799662 L18.7365177,19.7331648 C18.592706,19.8777222 18.4180801,19.9499998 18.2126348,19.9499998 C18.0071895,19.9499998 17.8325636,19.8777222 17.6887519,19.7331648 L15.4237288,17.4563972 L13.1587057,19.7331648 C13.014894,19.8777222 12.8402681,19.9499998 12.6348228,19.9499998 C12.4293775,19.9499998 12.2547516,19.8777222 12.1109399,19.7331648 L11.0631741,18.6799662 C10.9193624,18.5354088 10.8474576,18.3598774 10.8474576,18.1533668 L10.8474576,18.1533668 Z" id="" transform="translate(15.423729, 15.350000) rotate(-180.000000) translate(-15.423729, -15.350000) "></path>
        </g>
    </g>
</svg>