<?xml version="1.0" encoding="UTF-8"?>
<svg width="32px" height="26px" viewBox="0 0 32 26" version="1.1" xmlns="http://www.w3.org/2000/svg" xmlns:xlink="http://www.w3.org/1999/xlink" style="background: transparent;">
    <!-- Generator: Sketch 43.2 (39069) - http://www.bohemiancoding.com/sketch -->
    <title>stat4_light</title>
    <desc>Created with Sketch.</desc>
    <defs></defs>
    <g id="Symbols" stroke="none" stroke-width="1" fill="none" fill-rule="evenodd">
        <g id="stat4_light">
            <path d="M5.31479683,17.2930694 C5.48872092,17.1188383 5.76726042,17.1362614 5.95853087,17.3278389 L8.00747329,19.3314966 C8.40751405,19.7314606 9.06851769,19.7314606 9.48613506,19.3314966 L14.9018057,13.9566589 C15.0931529,13.7653117 15.2148844,13.4867722 15.2148844,13.2259628 C15.2148844,12.9647697 15.1104993,12.6865372 14.9018057,12.4952667 L12.8876328,10.4916858 C12.6963623,10.3000316 12.6615929,9.98702964 12.835517,9.81310555 L17.5327722,5.11562009 C17.6023111,5.0460044 17.67185,5.01123493 17.7762352,5.01123493 C17.9156201,5.01123493 18.072121,5.08077387 18.1765062,5.18508227 L19.7073605,6.71632038 L20.21194,7.48170918 C21.8648328,11.3092672 20.7165194,14.9625173 18.9245486,16.7372185 L12.2214866,23.4342169 C10.8470565,24.808647 8.88116169,25.5566895 6.65438073,25.5566895 C5.3495663,25.5566895 4.04475186,25.2958033 2.89643841,24.7912239 L2.09620339,24.3040676 L0.547695676,22.7557902 C0.443310522,22.651405 0.443310522,22.494904 0.443310522,22.4253651 C0.460733632,22.251134 0.530272566,22.094633 0.617541625,21.9903246 L5.31479683,17.2930694 Z" id="Fill-1-Copy-11" fill="#FFFFFF" transform="translate(10.727273, 15.283962) rotate(-270.000000) translate(-10.727273, -15.283962) "></path>
            <g id="Group-22" transform="translate(24.500000, 8.000000) rotate(-180.000000) translate(-24.500000, -8.000000) translate(18.000000, 1.000000)" stroke="#E67C39" stroke-width="2" stroke-linecap="round">
                <path d="M12.6898509,0.444663556 L0.401210874,13.0623106" id="Stroke-2" transform="translate(6.545531, 6.753487) rotate(-720.000000) translate(-6.545531, -6.753487) "></path>
                <polyline id="Stroke-4" transform="translate(8.513960, 4.732140) rotate(-720.000000) translate(-8.513960, -4.732140) " points="4.33815167 0.444663556 12.6897677 0.444663556 12.6897677 9.0196165"></polyline>
            </g>
        </g>
    </g>
</svg>