<?xml version="1.0" encoding="UTF-8"?>
<svg width="20px" height="20px" viewBox="0 0 20 20" version="1.1" xmlns="http://www.w3.org/2000/svg" xmlns:xlink="http://www.w3.org/1999/xlink">
    <!-- Generator: Sketch 43.2 (39069) - http://www.bohemiancoding.com/sketch -->
    <title>rappels_clock_ok</title>
    <desc>Created with Sketch.</desc>
    <defs></defs>
    <g id="Symbols" stroke="none" stroke-width="1" fill="none" fill-rule="evenodd">
        <g id="rappels_clock_ok" stroke="#2BA41B" stroke-width="2">
            <circle id="Oval-6" cx="10" cy="10" r="9"></circle>
            <polyline id="Line" stroke-linecap="round" stroke-linejoin="round" points="6 8.32183838 9.99633789 10.0690918 13.5001221 6"></polyline>
        </g>
    </g>
</svg>